
<svg xmlns="http://www.w3.org/2000/svg" viewBox="0 0 1339 5000" width="1340" height="5000">
    <rect x="0" y="185" width="1340" height="5000" style="fill-opacity: 1;fill: #fff" />
    <path id="Selection #1"
          style="fill-opacity: 1;fill: #fff"
          d="M 1238.00,85.44
           C 1223.69,90.76 1223.40,73.03 1233.02,67.74
             1246.43,64.78 1250.70,80.71 1238.00,85.44 Z
           M 176.87,77.09
           C 179.37,80.70 181.66,87.22 175.94,89.17
             166.47,92.41 147.93,78.26 162.04,71.65
             168.07,70.44 173.22,71.82 176.87,77.09 Z
           M 34.00,136.25
           C 42.21,138.56 48.63,138.01 57.00,138.00
             57.00,138.00 72.00,137.00 72.00,137.00
             72.00,137.00 76.00,137.00 76.00,137.00
             76.00,137.00 91.00,136.00 91.00,136.00
             91.00,136.00 104.00,136.00 104.00,136.00
             128.82,136.04 150.82,150.77 169.00,166.27
             169.00,166.27 187.00,181.23 187.00,181.23
             190.27,183.47 193.95,185.65 198.00,184.13
             201.05,182.99 204.61,179.47 206.67,177.00
             216.57,165.14 216.29,152.96 211.98,139.00
             210.48,134.16 206.07,121.79 207.93,117.15
             210.39,110.99 219.44,116.15 223.00,116.26
             227.07,116.38 229.47,113.30 231.16,110.00
             235.13,102.25 233.26,95.75 234.43,88.00
             234.93,84.70 235.10,81.66 239.06,81.18
             242.23,80.80 247.83,82.69 251.00,83.58
             251.00,83.58 270.00,88.98 270.00,88.98
             270.00,88.98 332.00,107.13 332.00,107.13
             352.53,112.26 378.95,117.97 400.00,118.00
             400.00,118.00 407.00,118.00 407.00,118.00
             430.73,118.04 468.14,136.87 493.00,144.28
             505.58,148.03 518.90,149.98 532.00,150.00
             532.00,150.00 544.00,151.00 544.00,151.00
             544.00,151.00 554.00,151.00 554.00,151.00
             554.00,151.00 569.00,152.00 569.00,152.00
             569.00,152.00 579.00,152.96 579.00,152.96
             579.00,152.96 588.00,152.96 588.00,152.96
             588.00,152.96 606.00,154.00 606.00,154.00
             606.00,154.00 637.00,156.04 637.00,156.04
             637.00,156.04 653.00,156.04 653.00,156.04
             653.00,156.04 665.00,157.00 665.00,157.00
             665.00,157.00 703.00,154.96 703.00,154.96
             703.00,154.96 713.00,154.96 713.00,154.96
             713.00,154.96 763.00,146.12 763.00,146.12
             775.12,143.24 794.94,138.14 807.00,138.00
             826.55,137.77 841.85,139.19 861.00,143.42
             883.93,148.49 911.78,157.27 935.00,157.00
             944.57,156.88 956.21,154.33 965.00,150.57
             965.00,150.57 990.00,139.22 990.00,139.22
             990.00,139.22 1030.00,131.96 1030.00,131.96
             1049.74,126.10 1082.89,110.48 1103.00,101.85
             1118.91,95.02 1137.24,86.86 1154.00,82.88
             1159.59,81.56 1170.59,79.65 1175.91,82.01
             1184.64,85.87 1180.25,97.78 1186.56,104.77
             1190.86,109.54 1194.81,107.28 1200.00,106.47
             1202.88,106.01 1206.10,105.93 1207.39,109.15
             1208.83,112.74 1206.10,117.05 1204.32,120.00
             1201.65,124.42 1198.91,129.64 1199.56,135.00
             1200.95,146.52 1211.85,146.99 1221.00,147.00
             1221.00,147.00 1250.00,147.00 1250.00,147.00
             1250.00,147.00 1260.00,146.18 1260.00,146.18
             1260.00,146.18 1267.00,146.91 1267.00,146.91
             1275.21,147.47 1276.28,146.61 1285.00,149.35
             1303.25,155.07 1320.40,166.94 1340.00,167.00
             1340.00,167.00 1340.00,500.00 1340.00,500.00
             1340.00,500.00 0.00,500.00 0.00,500.00
             0.00,500.00 0.00,218.00 0.00,218.00
             0.00,218.00 0.00,136.00 0.00,136.00
             0.00,136.00 0.00,112.00 0.00,112.00
             0.00,112.00 1.00,99.00 1.00,99.00
             5.54,115.81 16.65,131.39 34.00,136.25 Z
           M 1222.87,97.77
           C 1219.11,99.72 1216.14,95.42 1220.31,91.08
             1226.53,89.70 1226.62,95.82 1222.87,97.77 Z
           M 193.02,99.83
           C 181.52,97.21 192.70,86.93 196.40,96.06
             196.92,97.33 196.89,98.67 197.00,99.83
             197.00,99.83 193.02,99.83 193.02,99.83 Z
           M 177.11,104.93
           C 169.07,103.52 176.12,93.68 180.83,101.23
             181.63,102.51 181.70,103.60 182.00,104.93
             182.00,104.93 177.11,104.93 177.11,104.93 Z" />
</svg>